C:\Users\common\eclipse-workspace\spring-boot-starter-parent\src\main\java\com\lilun\SpringBootSmartEquipSumApplication.java
C:\Users\common\eclipse-workspace\spring-boot-starter-parent\src\main\java\com\lilun\SumRestController.java
C:\Users\common\eclipse-workspace\spring-boot-starter-parent\src\main\java\com\lilun\ServiceUtils.java
C:\Users\common\eclipse-workspace\spring-boot-starter-parent\src\main\java\com\lilun\RequestMessage.java
